input,session_id,timestamp,event_type,button,x,y
cursor,5e428659f6ba2b00ec9b1b70,1581418078441000000,move,,428,310
cursor,5e428659f6ba2b00ec9b1b70,1581418078455000000,move,,427,310
cursor,5e428659f6ba2b00ec9b1b70,1581418078471000000,move,,423,311
cursor,5e428659f6ba2b00ec9b1b70,1581418078486000000,move,,416,314
cursor,5e428659f6ba2b00ec9b1b70,1581418078502000000,move,,406,317
cursor,5e428659f6ba2b00ec9b1b70,1581418078550000000,move,,388,318
cursor,5e428659f6ba2b00ec9b1b70,1581418078565000000,move,,377,318
cursor,5e428659f6ba2b00ec9b1b70,1581418078565000000,move,,366,318
cursor,5e428659f6ba2b00ec9b1b70,1581418078580000000,move,,355,318
cursor,5e428659f6ba2b00ec9b1b70,1581418078627000000,move,,343,318
cursor,5e428659f6ba2b00ec9b1b70,1581418078643000000,move,,338,318
cursor,5e428659f6ba2b00ec9b1b70,1581418078658000000,move,,333,317
cursor,5e428659f6ba2b00ec9b1b70,1581418078675000000,move,,331,317
cursor,5e428659f6ba2b00ec9b1b70,1581418078690000000,move,,326,317
cursor,5e428659f6ba2b00ec9b1b70,1581418078705000000,move,,324,317
cursor,5e428659f6ba2b00ec9b1b70,1581418078721000000,move,,323,317
cursor,5e428659f6ba2b00ec9b1b70,1581418078737000000,move,,322,317
cursor,5e428659f6ba2b00ec9b1b70,1581418078769000000,move,,321,317
cursor,5e428659f6ba2b00ec9b1b70,1581418078986000000,move,,321,316
cursor,5e428659f6ba2b00ec9b1b70,1581418079050000000,down,left,321,316
cursor,5e428659f6ba2b00ec9b1b70,1581418079127000000,up,left,321,316
cursor,5e428659f6ba2b00ec9b1b70,1581418079941000000,down,left,321,316
cursor,5e428659f6ba2b00ec9b1b70,1581418080033000000,up,left,321,316
cursor,5e428659f6ba2b00ec9b1b70,1581418080158000000,down,left,321,316
cursor,5e428659f6ba2b00ec9b1b70,1581418080252000000,up,left,321,316
cursor,5e428659f6ba2b00ec9b1b70,1581418080533000000,move,,321,315
cursor,5e428659f6ba2b00ec9b1b70,1581418080566000000,move,,322,315
cursor,5e428659f6ba2b00ec9b1b70,1581418080580000000,move,,326,315
cursor,5e428659f6ba2b00ec9b1b70,1581418080596000000,move,,330,315
cursor,5e428659f6ba2b00ec9b1b70,1581418080611000000,move,,334,315
cursor,5e428659f6ba2b00ec9b1b70,1581418080628000000,move,,346,315
cursor,5e428659f6ba2b00ec9b1b70,1581418080658000000,move,,370,318
cursor,5e428659f6ba2b00ec9b1b70,1581418080674000000,move,,383,318
cursor,5e428659f6ba2b00ec9b1b70,1581418080674000000,move,,389,318
cursor,5e428659f6ba2b00ec9b1b70,1581418080706000000,move,,409,318
cursor,5e428659f6ba2b00ec9b1b70,1581418080722000000,move,,426,318
cursor,5e428659f6ba2b00ec9b1b70,1581418080737000000,move,,442,318
cursor,5e428659f6ba2b00ec9b1b70,1581418080753000000,move,,456,318
cursor,5e428659f6ba2b00ec9b1b70,1581418080769000000,move,,466,318
cursor,5e428659f6ba2b00ec9b1b70,1581418080799000000,move,,476,318
cursor,5e428659f6ba2b00ec9b1b70,1581418080816000000,move,,482,318
cursor,5e428659f6ba2b00ec9b1b70,1581418080830000000,move,,483,318
cursor,5e428659f6ba2b00ec9b1b70,1581418080861000000,move,,485,317
cursor,5e428659f6ba2b00ec9b1b70,1581418080861000000,move,,486,317
cursor,5e428659f6ba2b00ec9b1b70,1581418080893000000,move,,488,315
cursor,5e428659f6ba2b00ec9b1b70,1581418080924000000,move,,493,312
cursor,5e428659f6ba2b00ec9b1b70,1581418080924000000,move,,495,312
cursor,5e428659f6ba2b00ec9b1b70,1581418080940000000,move,,496,311
cursor,5e428659f6ba2b00ec9b1b70,1581418080987000000,move,,499,311
cursor,5e428659f6ba2b00ec9b1b70,1581418081002000000,move,,500,310
cursor,5e428659f6ba2b00ec9b1b70,1581418081143000000,move,,497,310
cursor,5e428659f6ba2b00ec9b1b70,1581418081159000000,move,,491,310
cursor,5e428659f6ba2b00ec9b1b70,1581418081174000000,move,,489,310
cursor,5e428659f6ba2b00ec9b1b70,1581418082269000000,move,,490,310
cursor,5e428659f6ba2b00ec9b1b70,1581418082268000000,move,,491,310
cursor,5e428659f6ba2b00ec9b1b70,1581418082283000000,move,,496,309
cursor,5e428659f6ba2b00ec9b1b70,1581418082300000000,move,,500,308
cursor,5e428659f6ba2b00ec9b1b70,1581418082315000000,move,,506,307
cursor,5e428659f6ba2b00ec9b1b70,1581418082347000000,move,,510,307
cursor,5e428659f6ba2b00ec9b1b70,1581418082392000000,move,,515,307
cursor,5e428659f6ba2b00ec9b1b70,1581418082408000000,move,,517,307
cursor,5e428659f6ba2b00ec9b1b70,1581418082424000000,move,,522,307
cursor,5e428659f6ba2b00ec9b1b70,1581418082424000000,move,,524,307
cursor,5e428659f6ba2b00ec9b1b70,1581418082455000000,move,,529,307
cursor,5e428659f6ba2b00ec9b1b70,1581418082455000000,move,,533,307
cursor,5e428659f6ba2b00ec9b1b70,1581418082472000000,move,,537,307
cursor,5e428659f6ba2b00ec9b1b70,1581418082487000000,move,,539,307
cursor,5e428659f6ba2b00ec9b1b70,1581418082502000000,move,,541,307
cursor,5e428659f6ba2b00ec9b1b70,1581418082533000000,move,,546,307
cursor,5e428659f6ba2b00ec9b1b70,1581418082550000000,move,,548,307
cursor,5e428659f6ba2b00ec9b1b70,1581418082690000000,move,,546,307
cursor,5e428659f6ba2b00ec9b1b70,1581418082705000000,move,,541,307
cursor,5e428659f6ba2b00ec9b1b70,1581418082721000000,move,,534,307
cursor,5e428659f6ba2b00ec9b1b70,1581418082753000000,move,,521,307
cursor,5e428659f6ba2b00ec9b1b70,1581418082753000000,move,,514,307
cursor,5e428659f6ba2b00ec9b1b70,1581418082769000000,move,,508,307
cursor,5e428659f6ba2b00ec9b1b70,1581418082783000000,move,,502,307
cursor,5e428659f6ba2b00ec9b1b70,1581418082799000000,move,,499,307
cursor,5e428659f6ba2b00ec9b1b70,1581418082815000000,move,,496,307
cursor,5e428659f6ba2b00ec9b1b70,1581418082846000000,move,,491,307
cursor,5e428659f6ba2b00ec9b1b70,1581418082862000000,move,,488,307
cursor,5e428659f6ba2b00ec9b1b70,1581418082877000000,move,,484,307
cursor,5e428659f6ba2b00ec9b1b70,1581418082894000000,move,,478,307
cursor,5e428659f6ba2b00ec9b1b70,1581418082908000000,move,,475,307
cursor,5e428659f6ba2b00ec9b1b70,1581418082908000000,move,,474,307
cursor,5e428659f6ba2b00ec9b1b70,1581418082955000000,move,,474,308
cursor,5e428659f6ba2b00ec9b1b70,1581418082972000000,move,,480,311
cursor,5e428659f6ba2b00ec9b1b70,1581418082986000000,move,,504,324
cursor,5e428659f6ba2b00ec9b1b70,1581418083002000000,move,,565,357
cursor,5e428659f6ba2b00ec9b1b70,1581418083034000000,move,,655,402
cursor,5e428659f6ba2b00ec9b1b70,1581418083034000000,move,,758,450
cursor,5e428659f6ba2b00ec9b1b70,1581418083065000000,move,,863,496
cursor,5e428659f6ba2b00ec9b1b70,1581418083065000000,move,,913,516
cursor,5e428659f6ba2b00ec9b1b70,1581418083080000000,move,,995,548
cursor,5e428659f6ba2b00ec9b1b70,1581418083111000000,move,,1054,564
cursor,5e428659f6ba2b00ec9b1b70,1581418083127000000,move,,1077,565
cursor,5e428659f6ba2b00ec9b1b70,1581418083143000000,move,,1084,565
cursor,5e428659f6ba2b00ec9b1b70,1581418083159000000,move,,1089,561
cursor,5e428659f6ba2b00ec9b1b70,1581418083175000000,move,,1094,554
cursor,5e428659f6ba2b00ec9b1b70,1581418083221000000,move,,1105,540
cursor,5e428659f6ba2b00ec9b1b70,1581418083237000000,move,,1112,534
cursor,5e428659f6ba2b00ec9b1b70,1581418083253000000,move,,1116,531
cursor,5e428659f6ba2b00ec9b1b70,1581418083252000000,move,,1116,529
cursor,5e428659f6ba2b00ec9b1b70,1581418083284000000,move,,1120,527
cursor,5e428659f6ba2b00ec9b1b70,1581418083550000000,move,,1121,528
cursor,5e428659f6ba2b00ec9b1b70,1581418083565000000,move,,1121,529
cursor,5e428659f6ba2b00ec9b1b70,1581418083580000000,move,,1120,531
cursor,5e428659f6ba2b00ec9b1b70,1581418083596000000,move,,1114,538
cursor,5e428659f6ba2b00ec9b1b70,1581418083612000000,move,,1096,551
cursor,5e428659f6ba2b00ec9b1b70,1581418083644000000,move,,1070,561
cursor,5e428659f6ba2b00ec9b1b70,1581418083659000000,move,,1050,563
cursor,5e428659f6ba2b00ec9b1b70,1581418083675000000,move,,1031,564
cursor,5e428659f6ba2b00ec9b1b70,1581418083690000000,move,,1016,562
cursor,5e428659f6ba2b00ec9b1b70,1581418083722000000,move,,999,546
cursor,5e428659f6ba2b00ec9b1b70,1581418083752000000,move,,996,528
cursor,5e428659f6ba2b00ec9b1b70,1581418083768000000,move,,996,514
cursor,5e428659f6ba2b00ec9b1b70,1581418083783000000,move,,1002,501
cursor,5e428659f6ba2b00ec9b1b70,1581418083799000000,move,,1012,489
cursor,5e428659f6ba2b00ec9b1b70,1581418083815000000,move,,1026,479
cursor,5e428659f6ba2b00ec9b1b70,1581418083846000000,move,,1072,464
cursor,5e428659f6ba2b00ec9b1b70,1581418083861000000,move,,1096,460
cursor,5e428659f6ba2b00ec9b1b70,1581418083861000000,move,,1108,458
cursor,5e428659f6ba2b00ec9b1b70,1581418083878000000,move,,1134,457
cursor,5e428659f6ba2b00ec9b1b70,1581418083908000000,move,,1180,457
cursor,5e428659f6ba2b00ec9b1b70,1581418083925000000,move,,1201,464
cursor,5e428659f6ba2b00ec9b1b70,1581418083940000000,move,,1216,471
cursor,5e428659f6ba2b00ec9b1b70,1581418083971000000,move,,1235,484
cursor,5e428659f6ba2b00ec9b1b70,1581418084002000000,move,,1244,498
cursor,5e428659f6ba2b00ec9b1b70,1581418084019000000,move,,1246,510
cursor,5e428659f6ba2b00ec9b1b70,1581418084033000000,move,,1246,523
cursor,5e428659f6ba2b00ec9b1b70,1581418084050000000,move,,1245,538
cursor,5e428659f6ba2b00ec9b1b70,1581418084065000000,move,,1238,555
cursor,5e428659f6ba2b00ec9b1b70,1581418084096000000,move,,1208,596
cursor,5e428659f6ba2b00ec9b1b70,1581418084112000000,move,,1189,608
cursor,5e428659f6ba2b00ec9b1b70,1581418084127000000,move,,1160,618
cursor,5e428659f6ba2b00ec9b1b70,1581418084159000000,move,,1088,625
cursor,5e428659f6ba2b00ec9b1b70,1581418084175000000,move,,1050,622
cursor,5e428659f6ba2b00ec9b1b70,1581418084205000000,move,,1018,613
cursor,5e428659f6ba2b00ec9b1b70,1581418084206000000,move,,1005,609
cursor,5e428659f6ba2b00ec9b1b70,1581418084236000000,move,,974,586
cursor,5e428659f6ba2b00ec9b1b70,1581418084253000000,move,,960,567
cursor,5e428659f6ba2b00ec9b1b70,1581418084269000000,move,,951,544
cursor,5e428659f6ba2b00ec9b1b70,1581418084284000000,move,,949,520
cursor,5e428659f6ba2b00ec9b1b70,1581418084299000000,move,,950,486
cursor,5e428659f6ba2b00ec9b1b70,1581418084315000000,move,,959,466
cursor,5e428659f6ba2b00ec9b1b70,1581418084346000000,move,,985,436
cursor,5e428659f6ba2b00ec9b1b70,1581418084362000000,move,,1004,423
cursor,5e428659f6ba2b00ec9b1b70,1581418084377000000,move,,1026,414
cursor,5e428659f6ba2b00ec9b1b70,1581418084408000000,move,,1051,408
cursor,5e428659f6ba2b00ec9b1b70,1581418084424000000,move,,1086,405
cursor,5e428659f6ba2b00ec9b1b70,1581418084440000000,move,,1127,405
cursor,5e428659f6ba2b00ec9b1b70,1581418084455000000,move,,1154,405
cursor,5e428659f6ba2b00ec9b1b70,1581418084471000000,move,,1180,410
cursor,5e428659f6ba2b00ec9b1b70,1581418084486000000,move,,1203,418
cursor,5e428659f6ba2b00ec9b1b70,1581418084533000000,move,,1240,449
cursor,5e428659f6ba2b00ec9b1b70,1581418084566000000,move,,1256,479
cursor,5e428659f6ba2b00ec9b1b70,1581418084580000000,move,,1261,498
cursor,5e428659f6ba2b00ec9b1b70,1581418084596000000,move,,1263,518
cursor,5e428659f6ba2b00ec9b1b70,1581418084596000000,move,,1263,529
cursor,5e428659f6ba2b00ec9b1b70,1581418084612000000,move,,1263,549
cursor,5e428659f6ba2b00ec9b1b70,1581418084643000000,move,,1252,586
cursor,5e428659f6ba2b00ec9b1b70,1581418084658000000,move,,1239,611
cursor,5e428659f6ba2b00ec9b1b70,1581418084675000000,move,,1226,635
cursor,5e428659f6ba2b00ec9b1b70,1581418084690000000,move,,1199,666
cursor,5e428659f6ba2b00ec9b1b70,1581418084706000000,move,,1176,684
cursor,5e428659f6ba2b00ec9b1b70,1581418084753000000,move,,1126,705
cursor,5e428659f6ba2b00ec9b1b70,1581418084768000000,move,,1096,708
cursor,5e428659f6ba2b00ec9b1b70,1581418084784000000,move,,1063,709
cursor,5e428659f6ba2b00ec9b1b70,1581418084800000000,move,,1027,705
cursor,5e428659f6ba2b00ec9b1b70,1581418084830000000,move,,972,675
cursor,5e428659f6ba2b00ec9b1b70,1581418084830000000,move,,910,616
cursor,5e428659f6ba2b00ec9b1b70,1581418084846000000,move,,873,557
cursor,5e428659f6ba2b00ec9b1b70,1581418084877000000,move,,846,497
cursor,5e428659f6ba2b00ec9b1b70,1581418084908000000,move,,825,417
cursor,5e428659f6ba2b00ec9b1b70,1581418084907000000,move,,822,362
cursor,5e428659f6ba2b00ec9b1b70,1581418084940000000,move,,831,324
cursor,5e428659f6ba2b00ec9b1b70,1581418084955000000,move,,846,303
cursor,5e428659f6ba2b00ec9b1b70,1581418084972000000,move,,866,284
cursor,5e428659f6ba2b00ec9b1b70,1581418084987000000,move,,896,268
cursor,5e428659f6ba2b00ec9b1b70,1581418085018000000,move,,958,248
cursor,5e428659f6ba2b00ec9b1b70,1581418085034000000,move,,1037,240
cursor,5e428659f6ba2b00ec9b1b70,1581418085065000000,move,,1097,240
cursor,5e428659f6ba2b00ec9b1b70,1581418085080000000,move,,1166,244
cursor,5e428659f6ba2b00ec9b1b70,1581418085097000000,move,,1253,267
cursor,5e428659f6ba2b00ec9b1b70,1581418085127000000,move,,1319,304
cursor,5e428659f6ba2b00ec9b1b70,1581418085144000000,move,,1369,348
cursor,5e428659f6ba2b00ec9b1b70,1581418085159000000,move,,1397,385
cursor,5e428659f6ba2b00ec9b1b70,1581418085175000000,move,,1418,429
cursor,5e428659f6ba2b00ec9b1b70,1581418085190000000,move,,1430,467
cursor,5e428659f6ba2b00ec9b1b70,1581418085221000000,move,,1439,511
cursor,5e428659f6ba2b00ec9b1b70,1581418085236000000,move,,1440,564
cursor,5e428659f6ba2b00ec9b1b70,1581418085268000000,move,,1431,599
cursor,5e428659f6ba2b00ec9b1b70,1581418085283000000,move,,1404,648
cursor,5e428659f6ba2b00ec9b1b70,1581418085283000000,move,,1394,662
cursor,5e428659f6ba2b00ec9b1b70,1581418085331000000,move,,1327,725
cursor,5e428659f6ba2b00ec9b1b70,1581418085346000000,move,,1297,744
cursor,5e428659f6ba2b00ec9b1b70,1581418085362000000,move,,1267,760
cursor,5e428659f6ba2b00ec9b1b70,1581418085377000000,move,,1232,773
cursor,5e428659f6ba2b00ec9b1b70,1581418085393000000,move,,1186,786
cursor,5e428659f6ba2b00ec9b1b70,1581418085424000000,move,,1124,795
cursor,5e428659f6ba2b00ec9b1b70,1581418085440000000,move,,1082,795
cursor,5e428659f6ba2b00ec9b1b70,1581418085455000000,move,,1058,790
cursor,5e428659f6ba2b00ec9b1b70,1581418085487000000,move,,1025,777
cursor,5e428659f6ba2b00ec9b1b70,1581418085487000000,move,,1007,762
cursor,5e428659f6ba2b00ec9b1b70,1581418085534000000,move,,979,726
cursor,5e428659f6ba2b00ec9b1b70,1581418085566000000,move,,949,669
cursor,5e428659f6ba2b00ec9b1b70,1581418085580000000,move,,933,634
cursor,5e428659f6ba2b00ec9b1b70,1581418085596000000,move,,918,599
cursor,5e428659f6ba2b00ec9b1b70,1581418085596000000,move,,913,582
cursor,5e428659f6ba2b00ec9b1b70,1581418085627000000,move,,896,544
cursor,5e428659f6ba2b00ec9b1b70,1581418085658000000,move,,881,494
cursor,5e428659f6ba2b00ec9b1b70,1581418085675000000,move,,879,476
cursor,5e428659f6ba2b00ec9b1b70,1581418085705000000,move,,880,457
cursor,5e428659f6ba2b00ec9b1b70,1581418085705000000,move,,881,447
cursor,5e428659f6ba2b00ec9b1b70,1581418085769000000,move,,907,368
cursor,5e428659f6ba2b00ec9b1b70,1581418085784000000,move,,918,348
cursor,5e428659f6ba2b00ec9b1b70,1581418085799000000,move,,932,328
cursor,5e428659f6ba2b00ec9b1b70,1581418085816000000,move,,949,310
cursor,5e428659f6ba2b00ec9b1b70,1581418085830000000,move,,958,302
cursor,5e428659f6ba2b00ec9b1b70,1581418085862000000,move,,999,274
cursor,5e428659f6ba2b00ec9b1b70,1581418085894000000,move,,1070,248
cursor,5e428659f6ba2b00ec9b1b70,1581418085908000000,move,,1124,235
cursor,5e428659f6ba2b00ec9b1b70,1581418085908000000,move,,1153,231
cursor,5e428659f6ba2b00ec9b1b70,1581418085924000000,move,,1239,218
cursor,5e428659f6ba2b00ec9b1b70,1581418085956000000,move,,1312,215
cursor,5e428659f6ba2b00ec9b1b70,1581418085971000000,move,,1339,217
cursor,5e428659f6ba2b00ec9b1b70,1581418085986000000,move,,1368,226
cursor,5e428659f6ba2b00ec9b1b70,1581418086003000000,move,,1400,238
cursor,5e428659f6ba2b00ec9b1b70,1581418086033000000,move,,1450,265
cursor,5e428659f6ba2b00ec9b1b70,1581418086080000000,move,,1522,319
cursor,5e428659f6ba2b00ec9b1b70,1581418086080000000,move,,1563,353
cursor,5e428659f6ba2b00ec9b1b70,1581418086097000000,move,,1594,384
cursor,5e428659f6ba2b00ec9b1b70,1581418086111000000,move,,1612,410
cursor,5e428659f6ba2b00ec9b1b70,1581418086144000000,move,,1631,442
cursor,5e428659f6ba2b00ec9b1b70,1581418086190000000,move,,1644,489
cursor,5e428659f6ba2b00ec9b1b70,1581418086205000000,move,,1644,507
cursor,5e428659f6ba2b00ec9b1b70,1581418086222000000,move,,1640,528
cursor,5e428659f6ba2b00ec9b1b70,1581418086222000000,move,,1636,537
cursor,5e428659f6ba2b00ec9b1b70,1581418086268000000,move,,1614,596
cursor,5e428659f6ba2b00ec9b1b70,1581418086300000000,move,,1596,634
cursor,5e428659f6ba2b00ec9b1b70,1581418086315000000,move,,1586,652
cursor,5e428659f6ba2b00ec9b1b70,1581418086330000000,move,,1574,669
cursor,5e428659f6ba2b00ec9b1b70,1581418086361000000,move,,1552,695
cursor,5e428659f6ba2b00ec9b1b70,1581418086378000000,move,,1528,721
cursor,5e428659f6ba2b00ec9b1b70,1581418086393000000,move,,1512,736
cursor,5e428659f6ba2b00ec9b1b70,1581418086409000000,move,,1493,750
cursor,5e428659f6ba2b00ec9b1b70,1581418086440000000,move,,1473,762
cursor,5e428659f6ba2b00ec9b1b70,1581418086441000000,move,,1462,769
cursor,5e428659f6ba2b00ec9b1b70,1581418086456000000,move,,1430,788
cursor,5e428659f6ba2b00ec9b1b70,1581418086503000000,move,,1377,808
cursor,5e428659f6ba2b00ec9b1b70,1581418086518000000,move,,1355,816
cursor,5e428659f6ba2b00ec9b1b70,1581418086534000000,move,,1333,823
cursor,5e428659f6ba2b00ec9b1b70,1581418086534000000,move,,1324,826
cursor,5e428659f6ba2b00ec9b1b70,1581418086565000000,move,,1285,835
cursor,5e428659f6ba2b00ec9b1b70,1581418086597000000,move,,1258,839
cursor,5e428659f6ba2b00ec9b1b70,1581418086611000000,move,,1242,839
cursor,5e428659f6ba2b00ec9b1b70,1581418086627000000,move,,1226,839
cursor,5e428659f6ba2b00ec9b1b70,1581418086643000000,move,,1212,839
cursor,5e428659f6ba2b00ec9b1b70,1581418086659000000,move,,1204,839
cursor,5e428659f6ba2b00ec9b1b70,1581418086675000000,move,,1182,839
cursor,5e428659f6ba2b00ec9b1b70,1581418086722000000,move,,1141,837
cursor,5e428659f6ba2b00ec9b1b70,1581418086736000000,move,,1124,833
cursor,5e428659f6ba2b00ec9b1b70,1581418086752000000,move,,1103,827
cursor,5e428659f6ba2b00ec9b1b70,1581418086752000000,move,,1093,823
cursor,5e428659f6ba2b00ec9b1b70,1581418086799000000,move,,1044,802
cursor,5e428659f6ba2b00ec9b1b70,1581418086816000000,move,,1029,792
cursor,5e428659f6ba2b00ec9b1b70,1581418086846000000,move,,1016,785
cursor,5e428659f6ba2b00ec9b1b70,1581418086862000000,move,,1008,778
cursor,5e428659f6ba2b00ec9b1b70,1581418086877000000,move,,1004,776
cursor,5e428659f6ba2b00ec9b1b70,1581418086909000000,move,,994,765
cursor,5e428659f6ba2b00ec9b1b70,1581418086924000000,move,,985,752
cursor,5e428659f6ba2b00ec9b1b70,1581418086940000000,move,,980,744
cursor,5e428659f6ba2b00ec9b1b70,1581418086956000000,move,,975,736
cursor,5e428659f6ba2b00ec9b1b70,1581418086971000000,move,,972,731
cursor,5e428659f6ba2b00ec9b1b70,1581418087018000000,move,,969,724
cursor,5e428659f6ba2b00ec9b1b70,1581418087049000000,move,,969,719
cursor,5e428659f6ba2b00ec9b1b70,1581418087066000000,move,,969,713
cursor,5e428659f6ba2b00ec9b1b70,1581418087081000000,move,,969,707
cursor,5e428659f6ba2b00ec9b1b70,1581418087097000000,move,,969,698
cursor,5e428659f6ba2b00ec9b1b70,1581418087096000000,move,,969,693
cursor,5e428659f6ba2b00ec9b1b70,1581418087127000000,move,,969,669
cursor,5e428659f6ba2b00ec9b1b70,1581418087158000000,move,,974,634
cursor,5e428659f6ba2b00ec9b1b70,1581418087174000000,move,,977,619
cursor,5e428659f6ba2b00ec9b1b70,1581418087190000000,move,,982,606
cursor,5e428659f6ba2b00ec9b1b70,1581418087205000000,move,,987,597
cursor,5e428659f6ba2b00ec9b1b70,1581418087268000000,move,,1023,559
cursor,5e428659f6ba2b00ec9b1b70,1581418087283000000,move,,1043,547
cursor,5e428659f6ba2b00ec9b1b70,1581418087299000000,move,,1068,535
cursor,5e428659f6ba2b00ec9b1b70,1581418087316000000,move,,1094,525
cursor,5e428659f6ba2b00ec9b1b70,1581418087330000000,move,,1114,517
cursor,5e428659f6ba2b00ec9b1b70,1581418087347000000,move,,1126,514
cursor,5e428659f6ba2b00ec9b1b70,1581418087393000000,move,,1128,514
cursor,5e428659f6ba2b00ec9b1b70,1581418087440000000,move,,1132,515
cursor,5e428659f6ba2b00ec9b1b70,1581418087440000000,move,,1133,517
cursor,5e428659f6ba2b00ec9b1b70,1581418087472000000,move,,1135,518
cursor,5e428659f6ba2b00ec9b1b70,1581418087472000000,move,,1135,519
cursor,5e428659f6ba2b00ec9b1b70,1581418087752000000,move,,1134,519
cursor,5e428659f6ba2b00ec9b1b70,1581418087769000000,move,,1128,518
cursor,5e428659f6ba2b00ec9b1b70,1581418087783000000,move,,1114,514
cursor,5e428659f6ba2b00ec9b1b70,1581418087831000000,move,,974,462
cursor,5e428659f6ba2b00ec9b1b70,1581418087846000000,move,,861,422
cursor,5e428659f6ba2b00ec9b1b70,1581418087861000000,move,,795,397
cursor,5e428659f6ba2b00ec9b1b70,1581418087877000000,move,,740,379
cursor,5e428659f6ba2b00ec9b1b70,1581418087894000000,move,,718,374
cursor,5e428659f6ba2b00ec9b1b70,1581418087908000000,move,,663,363
cursor,5e428659f6ba2b00ec9b1b70,1581418087940000000,move,,621,362
cursor,5e428659f6ba2b00ec9b1b70,1581418087955000000,move,,607,362
cursor,5e428659f6ba2b00ec9b1b70,1581418087971000000,move,,594,362
cursor,5e428659f6ba2b00ec9b1b70,1581418087986000000,move,,577,362
cursor,5e428659f6ba2b00ec9b1b70,1581418088002000000,move,,566,362
cursor,5e428659f6ba2b00ec9b1b70,1581418088018000000,move,,535,361
cursor,5e428659f6ba2b00ec9b1b70,1581418088065000000,move,,481,354
cursor,5e428659f6ba2b00ec9b1b70,1581418088080000000,move,,462,351
cursor,5e428659f6ba2b00ec9b1b70,1581418088096000000,move,,446,348
cursor,5e428659f6ba2b00ec9b1b70,1581418088112000000,move,,435,345
cursor,5e428659f6ba2b00ec9b1b70,1581418088143000000,move,,429,343
cursor,5e428659f6ba2b00ec9b1b70,1581418088174000000,move,,426,339
cursor,5e428659f6ba2b00ec9b1b70,1581418088190000000,move,,425,335
cursor,5e428659f6ba2b00ec9b1b70,1581418088205000000,move,,424,333
cursor,5e428659f6ba2b00ec9b1b70,1581418088237000000,move,,421,329
cursor,5e428659f6ba2b00ec9b1b70,1581418088300000000,move,,408,321
cursor,5e428659f6ba2b00ec9b1b70,1581418088315000000,move,,407,319
cursor,5e428659f6ba2b00ec9b1b70,1581418088330000000,move,,406,319
cursor,5e428659f6ba2b00ec9b1b70,1581418088440000000,move,,406,316
cursor,5e428659f6ba2b00ec9b1b70,1581418088455000000,move,,406,315
cursor,5e428659f6ba2b00ec9b1b70,1581418088486000000,move,,405,315
cursor,5e428659f6ba2b00ec9b1b70,1581418088519000000,move,,396,315
cursor,5e428659f6ba2b00ec9b1b70,1581418088550000000,move,,383,314
cursor,5e428659f6ba2b00ec9b1b70,1581418088564000000,move,,381,314
cursor,5e428659f6ba2b00ec9b1b70,1581418088580000000,move,,380,314
cursor,5e428659f6ba2b00ec9b1b70,1581418089097000000,down,left,380,314
cursor,5e428659f6ba2b00ec9b1b70,1581418089174000000,up,left,380,314
cursor,5e428669f6ba2b00ec9b1cbe,1581418089736000000,move,,383,315
cursor,5e428669f6ba2b00ec9b1cbe,1581418089752000000,move,,390,320
cursor,5e428669f6ba2b00ec9b1cbe,1581418089768000000,move,,401,331
cursor,5e428669f6ba2b00ec9b1cbe,1581418089800000000,move,,418,346
cursor,5e428669f6ba2b00ec9b1cbe,1581418089815000000,move,,448,365
cursor,5e428669f6ba2b00ec9b1cbe,1581418089847000000,move,,525,413
cursor,5e428669f6ba2b00ec9b1cbe,1581418089877000000,move,,566,434
cursor,5e428669f6ba2b00ec9b1cbe,1581418089893000000,move,,598,444
cursor,5e428669f6ba2b00ec9b1cbe,1581418089909000000,move,,642,451
cursor,5e428669f6ba2b00ec9b1cbe,1581418089940000000,move,,697,460
cursor,5e428669f6ba2b00ec9b1cbe,1581418089940000000,move,,724,466
cursor,5e428669f6ba2b00ec9b1cbe,1581418089971000000,move,,809,485
cursor,5e428669f6ba2b00ec9b1cbe,1581418090002000000,move,,849,496
cursor,5e428669f6ba2b00ec9b1cbe,1581418090018000000,move,,863,499
cursor,5e428669f6ba2b00ec9b1cbe,1581418090049000000,move,,895,504
cursor,5e428669f6ba2b00ec9b1cbe,1581418090081000000,move,,934,509
cursor,5e428669f6ba2b00ec9b1cbe,1581418090096000000,move,,962,512
cursor,5e428669f6ba2b00ec9b1cbe,1581418090127000000,move,,996,516
cursor,5e428669f6ba2b00ec9b1cbe,1581418090144000000,move,,1031,518
cursor,5e428669f6ba2b00ec9b1cbe,1581418090143000000,move,,1047,518
cursor,5e428669f6ba2b00ec9b1cbe,1581418090158000000,move,,1098,520
cursor,5e428669f6ba2b00ec9b1cbe,1581418090205000000,move,,1114,520
cursor,5e428669f6ba2b00ec9b1cbe,1581418090472000000,move,,1114,518
cursor,5e428669f6ba2b00ec9b1cbe,1581418090487000000,move,,1111,511
cursor,5e428669f6ba2b00ec9b1cbe,1581418090503000000,move,,1108,497
cursor,5e428669f6ba2b00ec9b1cbe,1581418090503000000,move,,1108,489
cursor,5e428669f6ba2b00ec9b1cbe,1581418090533000000,move,,1109,470
cursor,5e428669f6ba2b00ec9b1cbe,1581418090565000000,move,,1136,423
cursor,5e428669f6ba2b00ec9b1cbe,1581418090611000000,move,,1169,408
cursor,5e428669f6ba2b00ec9b1cbe,1581418090627000000,move,,1187,408
cursor,5e428669f6ba2b00ec9b1cbe,1581418090627000000,move,,1205,417
cursor,5e428669f6ba2b00ec9b1cbe,1581418090644000000,move,,1227,431
cursor,5e428669f6ba2b00ec9b1cbe,1581418090674000000,move,,1282,474
cursor,5e428669f6ba2b00ec9b1cbe,1581418090706000000,move,,1313,529
cursor,5e428669f6ba2b00ec9b1cbe,1581418090736000000,move,,1314,554
cursor,5e428669f6ba2b00ec9b1cbe,1581418090752000000,move,,1309,577
cursor,5e428669f6ba2b00ec9b1cbe,1581418090768000000,move,,1282,610
cursor,5e428669f6ba2b00ec9b1cbe,1581418090799000000,move,,1213,645
cursor,5e428669f6ba2b00ec9b1cbe,1581418090830000000,move,,1139,656
cursor,5e428669f6ba2b00ec9b1cbe,1581418090846000000,move,,1098,651
cursor,5e428669f6ba2b00ec9b1cbe,1581418090862000000,move,,1054,637
cursor,5e428669f6ba2b00ec9b1cbe,1581418090877000000,move,,1005,614
cursor,5e428669f6ba2b00ec9b1cbe,1581418090894000000,move,,978,600
cursor,5e428669f6ba2b00ec9b1cbe,1581418090940000000,move,,879,463
cursor,5e428669f6ba2b00ec9b1cbe,1581418090987000000,move,,886,410
cursor,5e428669f6ba2b00ec9b1cbe,1581418091002000000,move,,900,387
cursor,5e428669f6ba2b00ec9b1cbe,1581418091018000000,move,,919,370
cursor,5e428669f6ba2b00ec9b1cbe,1581418091034000000,move,,930,363
cursor,5e428669f6ba2b00ec9b1cbe,1581418091065000000,move,,987,340
cursor,5e428669f6ba2b00ec9b1cbe,1581418091111000000,move,,1113,332
cursor,5e428669f6ba2b00ec9b1cbe,1581418091128000000,move,,1169,334
cursor,5e428669f6ba2b00ec9b1cbe,1581418091143000000,move,,1220,346
cursor,5e428669f6ba2b00ec9b1cbe,1581418091158000000,move,,1258,363
cursor,5e428669f6ba2b00ec9b1cbe,1581418091190000000,move,,1315,406
cursor,5e428669f6ba2b00ec9b1cbe,1581418091221000000,move,,1347,460
cursor,5e428669f6ba2b00ec9b1cbe,1581418091237000000,move,,1349,484
cursor,5e428669f6ba2b00ec9b1cbe,1581418091252000000,move,,1348,509
cursor,5e428669f6ba2b00ec9b1cbe,1581418091269000000,move,,1339,536
cursor,5e428669f6ba2b00ec9b1cbe,1581418091346000000,move,,1176,693
cursor,5e428669f6ba2b00ec9b1cbe,1581418091378000000,move,,1050,732
cursor,5e428669f6ba2b00ec9b1cbe,1581418091394000000,move,,993,738
cursor,5e428669f6ba2b00ec9b1cbe,1581418091409000000,move,,943,738
cursor,5e428669f6ba2b00ec9b1cbe,1581418091409000000,move,,918,735
cursor,5e428669f6ba2b00ec9b1cbe,1581418091440000000,move,,835,693
cursor,5e428669f6ba2b00ec9b1cbe,1581418091487000000,move,,763,599
cursor,5e428669f6ba2b00ec9b1cbe,1581418091503000000,move,,745,547
cursor,5e428669f6ba2b00ec9b1cbe,1581418091518000000,move,,739,495
cursor,5e428669f6ba2b00ec9b1cbe,1581418091518000000,move,,743,439
cursor,5e428669f6ba2b00ec9b1cbe,1581418091565000000,move,,787,317
cursor,5e428669f6ba2b00ec9b1cbe,1581418091611000000,move,,878,210
cursor,5e428669f6ba2b00ec9b1cbe,1581418091627000000,move,,921,184
cursor,5e428669f6ba2b00ec9b1cbe,1581418091628000000,move,,966,166
cursor,5e428669f6ba2b00ec9b1cbe,1581418091644000000,move,,1014,154
cursor,5e428669f6ba2b00ec9b1cbe,1581418091690000000,move,,1114,151
cursor,5e428669f6ba2b00ec9b1cbe,1581418091721000000,move,,1187,177
cursor,5e428669f6ba2b00ec9b1cbe,1581418091752000000,move,,1256,216
cursor,5e428669f6ba2b00ec9b1cbe,1581418091769000000,move,,1314,260
cursor,5e428669f6ba2b00ec9b1cbe,1581418091783000000,move,,1365,313
cursor,5e428669f6ba2b00ec9b1cbe,1581418091861000000,move,,1412,599
cursor,5e428669f6ba2b00ec9b1cbe,1581418091877000000,move,,1386,651
cursor,5e428669f6ba2b00ec9b1cbe,1581418091893000000,move,,1348,696
cursor,5e428669f6ba2b00ec9b1cbe,1581418091909000000,move,,1306,733
cursor,5e428669f6ba2b00ec9b1cbe,1581418091909000000,move,,1279,750
cursor,5e428669f6ba2b00ec9b1cbe,1581418091940000000,move,,1156,795
cursor,5e428669f6ba2b00ec9b1cbe,1581418092002000000,move,,923,776
cursor,5e428669f6ba2b00ec9b1cbe,1581418092019000000,move,,835,729
cursor,5e428669f6ba2b00ec9b1cbe,1581418092034000000,move,,758,667
cursor,5e428669f6ba2b00ec9b1cbe,1581418092080000000,move,,672,477
cursor,5e428669f6ba2b00ec9b1cbe,1581418092111000000,move,,714,345
cursor,5e428669f6ba2b00ec9b1cbe,1581418092128000000,move,,760,277
cursor,5e428669f6ba2b00ec9b1cbe,1581418092159000000,move,,854,193
cursor,5e428669f6ba2b00ec9b1cbe,1581418092174000000,move,,912,160
cursor,5e428669f6ba2b00ec9b1cbe,1581418092205000000,move,,1009,129
cursor,5e428669f6ba2b00ec9b1cbe,1581418092252000000,move,,1141,136
cursor,5e428669f6ba2b00ec9b1cbe,1581418092268000000,move,,1196,156
cursor,5e428669f6ba2b00ec9b1cbe,1581418092283000000,move,,1263,182
cursor,5e428669f6ba2b00ec9b1cbe,1581418092283000000,move,,1294,194
cursor,5e428669f6ba2b00ec9b1cbe,1581418092393000000,move,,1500,426
cursor,5e428669f6ba2b00ec9b1cbe,1581418092408000000,move,,1500,473
cursor,5e428669f6ba2b00ec9b1cbe,1581418092425000000,move,,1488,519
cursor,5e428669f6ba2b00ec9b1cbe,1581418092440000000,move,,1461,569
cursor,5e428669f6ba2b00ec9b1cbe,1581418092471000000,move,,1375,665
cursor,5e428669f6ba2b00ec9b1cbe,1581418092487000000,move,,1247,751
cursor,5e428669f6ba2b00ec9b1cbe,1581418092502000000,move,,1175,791
cursor,5e428669f6ba2b00ec9b1cbe,1581418092518000000,move,,1107,825
cursor,5e428669f6ba2b00ec9b1cbe,1581418092549000000,move,,1035,852
cursor,5e428669f6ba2b00ec9b1cbe,1581418092549000000,move,,1002,863
cursor,5e428669f6ba2b00ec9b1cbe,1581418092611000000,move,,811,883
cursor,5e428669f6ba2b00ec9b1cbe,1581418092658000000,move,,742,860
cursor,5e428669f6ba2b00ec9b1cbe,1581418092675000000,move,,714,841
cursor,5e428669f6ba2b00ec9b1cbe,1581418092675000000,move,,689,815
cursor,5e428669f6ba2b00ec9b1cbe,1581418092690000000,move,,654,771
cursor,5e428669f6ba2b00ec9b1cbe,1581418092705000000,move,,631,743
cursor,5e428669f6ba2b00ec9b1cbe,1581418092736000000,move,,530,607
cursor,5e428669f6ba2b00ec9b1cbe,1581418092799000000,move,,490,517
cursor,5e428669f6ba2b00ec9b1cbe,1581418092816000000,move,,478,496
cursor,5e428669f6ba2b00ec9b1cbe,1581418092830000000,move,,468,481
cursor,5e428669f6ba2b00ec9b1cbe,1581418092830000000,move,,465,477
cursor,5e428669f6ba2b00ec9b1cbe,1581418092924000000,move,,460,469
cursor,5e428669f6ba2b00ec9b1cbe,1581418092940000000,move,,449,452
cursor,5e428669f6ba2b00ec9b1cbe,1581418092955000000,move,,438,431
cursor,5e428669f6ba2b00ec9b1cbe,1581418092972000000,move,,427,408
cursor,5e428669f6ba2b00ec9b1cbe,1581418093002000000,move,,416,369
cursor,5e428669f6ba2b00ec9b1cbe,1581418093049000000,move,,414,337
cursor,5e428669f6ba2b00ec9b1cbe,1581418093065000000,move,,414,335
cursor,5e428669f6ba2b00ec9b1cbe,1581418093174000000,move,,412,334
cursor,5e428669f6ba2b00ec9b1cbe,1581418093191000000,move,,407,333
cursor,5e428669f6ba2b00ec9b1cbe,1581418093205000000,move,,398,331
cursor,5e428669f6ba2b00ec9b1cbe,1581418093221000000,move,,391,327
cursor,5e428669f6ba2b00ec9b1cbe,1581418093221000000,move,,389,325
cursor,5e428669f6ba2b00ec9b1cbe,1581418093269000000,move,,376,317
cursor,5e428669f6ba2b00ec9b1cbe,1581418093299000000,move,,369,314
cursor,5e428669f6ba2b00ec9b1cbe,1581418093331000000,move,,367,314
cursor,5e428669f6ba2b00ec9b1cbe,1581418093658000000,move,,367,313
cursor,5e428669f6ba2b00ec9b1cbe,1581418093831000000,down,left,367,313
cursor,5e428669f6ba2b00ec9b1cbe,1581418093909000000,up,left,367,313
cursor,5e428669f6ba2b00ec9b1cbe,1581418093971000000,move,,368,312
cursor,5e428669f6ba2b00ec9b1cbe,1581418093986000000,move,,369,312
cursor,5e428669f6ba2b00ec9b1cbe,1581418094002000000,move,,370,311
cursor,5e428669f6ba2b00ec9b1cbe,1581418094049000000,move,,393,315
cursor,5e428669f6ba2b00ec9b1cbe,1581418094081000000,move,,489,355
cursor,5e428669f6ba2b00ec9b1cbe,1581418094111000000,move,,638,417
cursor,5e428669f6ba2b00ec9b1cbe,1581418094128000000,move,,748,458
cursor,5e428669f6ba2b00ec9b1cbe,1581418094144000000,move,,829,482
cursor,5e428669f6ba2b00ec9b1cbe,1581418094143000000,move,,862,490
cursor,5e428669f6ba2b00ec9b1cbe,1581418094190000000,move,,956,495
cursor,5e42866ef6ba2b00ec9b1d47,1581418094236000000,move,,979,494
cursor,5e42866ef6ba2b00ec9b1d47,1581418094533000000,move,,980,494
cursor,5e42866ef6ba2b00ec9b1d47,1581418094533000000,move,,980,493
cursor,5e42866ef6ba2b00ec9b1d47,1581418094549000000,move,,981,490
cursor,5e42866ef6ba2b00ec9b1d47,1581418094565000000,move,,985,486
cursor,5e42866ef6ba2b00ec9b1d47,1581418094643000000,move,,1029,455
cursor,5e42866ef6ba2b00ec9b1d47,1581418094691000000,move,,1057,460
cursor,5e42866ef6ba2b00ec9b1d47,1581418094705000000,move,,1067,469
cursor,5e42866ef6ba2b00ec9b1d47,1581418094721000000,move,,1071,478
cursor,5e42866ef6ba2b00ec9b1d47,1581418094752000000,move,,1075,501
cursor,5e42866ef6ba2b00ec9b1d47,1581418094800000000,move,,1062,526
cursor,5e42866ef6ba2b00ec9b1d47,1581418094816000000,move,,1050,536
cursor,5e42866ef6ba2b00ec9b1d47,1581418094830000000,move,,1034,546
cursor,5e42866ef6ba2b00ec9b1d47,1581418094862000000,move,,1016,552
cursor,5e42866ef6ba2b00ec9b1d47,1581418094861000000,move,,1005,556
cursor,5e42866ef6ba2b00ec9b1d47,1581418094908000000,move,,959,557
cursor,5e42866ef6ba2b00ec9b1d47,1581418094955000000,move,,930,530
cursor,5e42866ef6ba2b00ec9b1d47,1581418094955000000,move,,926,524
cursor,5e42866ef6ba2b00ec9b1d47,1581418095002000000,move,,915,482
cursor,5e42866ef6ba2b00ec9b1d47,1581418095049000000,move,,934,445
cursor,5e42866ef6ba2b00ec9b1d47,1581418095066000000,move,,946,435
cursor,5e42866ef6ba2b00ec9b1d47,1581418095097000000,move,,969,422
cursor,5e42866ef6ba2b00ec9b1d47,1581418095112000000,move,,986,416
cursor,5e42866ef6ba2b00ec9b1d47,1581418095205000000,move,,1051,418
cursor,5e42866ef6ba2b00ec9b1d47,1581418095221000000,move,,1056,423
cursor,5e42866ef6ba2b00ec9b1d47,1581418095237000000,move,,1063,430
cursor,5e42866ef6ba2b00ec9b1d47,1581418095252000000,move,,1067,439
cursor,5e42866ef6ba2b00ec9b1d47,1581418095269000000,move,,1072,452
cursor,5e42866ef6ba2b00ec9b1d47,1581418095330000000,move,,1077,521
cursor,5e42866ef6ba2b00ec9b1d47,1581418095376000000,move,,1055,573
cursor,5e42866ef6ba2b00ec9b1d47,1581418095378000000,move,,1050,579
cursor,5e42866ef6ba2b00ec9b1d47,1581418095408000000,move,,1032,594
cursor,5e42866ef6ba2b00ec9b1d47,1581418095409000000,move,,1026,598
cursor,5e42866ef6ba2b00ec9b1d47,1581418095456000000,move,,969,608
cursor,5e42866ef6ba2b00ec9b1d47,1581418095518000000,move,,918,586
cursor,5e42866ef6ba2b00ec9b1d47,1581418095534000000,move,,901,567
cursor,5e42866ef6ba2b00ec9b1d47,1581418095549000000,move,,884,545
cursor,5e42866ef6ba2b00ec9b1d47,1581418095566000000,move,,869,516
cursor,5e42866ef6ba2b00ec9b1d47,1581418095675000000,move,,871,402
cursor,5e42866ef6ba2b00ec9b1d47,1581418095691000000,move,,895,384
cursor,5e42866ef6ba2b00ec9b1d47,1581418095705000000,move,,918,372
cursor,5e42866ef6ba2b00ec9b1d47,1581418095721000000,move,,941,363
cursor,5e42866ef6ba2b00ec9b1d47,1581418095752000000,move,,962,355
cursor,5e42866ef6ba2b00ec9b1d47,1581418095752000000,move,,970,353
cursor,5e42866ef6ba2b00ec9b1d47,1581418095783000000,move,,991,351
cursor,5e42866ef6ba2b00ec9b1d47,1581418095831000000,move,,1010,354
cursor,5e42866ef6ba2b00ec9b1d47,1581418095861000000,move,,1043,373
cursor,5e42866ef6ba2b00ec9b1d47,1581418095861000000,move,,1066,392
cursor,5e42866ef6ba2b00ec9b1d47,1581418095878000000,move,,1096,419
cursor,5e42866ef6ba2b00ec9b1d47,1581418095893000000,move,,1111,435
cursor,5e42866ef6ba2b00ec9b1d47,1581418095925000000,move,,1152,522
cursor,5e42866ef6ba2b00ec9b1d47,1581418095986000000,move,,1142,591
cursor,5e42866ef6ba2b00ec9b1d47,1581418096002000000,move,,1129,610
cursor,5e42866ef6ba2b00ec9b1d47,1581418096018000000,move,,1112,626
cursor,5e42866ef6ba2b00ec9b1d47,1581418096033000000,move,,1088,643
cursor,5e42866ef6ba2b00ec9b1d47,1581418096096000000,move,,953,678
cursor,5e42866ef6ba2b00ec9b1d47,1581418096144000000,move,,859,648
cursor,5e42866ef6ba2b00ec9b1d47,1581418096158000000,move,,835,625
cursor,5e42866ef6ba2b00ec9b1d47,1581418096175000000,move,,813,596
cursor,5e42866ef6ba2b00ec9b1d47,1581418096175000000,move,,802,580
cursor,5e42866ef6ba2b00ec9b1d47,1581418096284000000,move,,806,371
cursor,5e42866ef6ba2b00ec9b1d47,1581418096299000000,move,,843,333
cursor,5e42866ef6ba2b00ec9b1d47,1581418096314000000,move,,881,310
cursor,5e42866ef6ba2b00ec9b1d47,1581418096331000000,move,,925,289
cursor,5e42866ef6ba2b00ec9b1d47,1581418096347000000,move,,949,281
cursor,5e42866ef6ba2b00ec9b1d47,1581418096471000000,move,,1139,260
cursor,5e42866ef6ba2b00ec9b1d47,1581418096486000000,move,,1159,273
cursor,5e42866ef6ba2b00ec9b1d47,1581418096502000000,move,,1181,290
cursor,5e42866ef6ba2b00ec9b1d47,1581418096503000000,move,,1200,310
cursor,5e42866ef6ba2b00ec9b1d47,1581418096566000000,move,,1236,430
cursor,5e42866ef6ba2b00ec9b1d47,1581418096611000000,move,,1216,547
cursor,5e42866ef6ba2b00ec9b1d47,1581418096627000000,move,,1179,600
cursor,5e42866ef6ba2b00ec9b1d47,1581418096643000000,move,,1132,647
cursor,5e42866ef6ba2b00ec9b1d47,1581418096659000000,move,,1074,687
cursor,5e42866ef6ba2b00ec9b1d47,1581418096659000000,move,,1045,704
cursor,5e42866ef6ba2b00ec9b1d47,1581418096721000000,move,,821,754
cursor,5e42866ef6ba2b00ec9b1d47,1581418096769000000,move,,714,662
cursor,5e42866ef6ba2b00ec9b1d47,1581418096784000000,move,,682,604
cursor,5e42866ef6ba2b00ec9b1d47,1581418096816000000,move,,654,542
cursor,5e42866ef6ba2b00ec9b1d47,1581418096831000000,move,,636,481
cursor,5e42866ef6ba2b00ec9b1d47,1581418096877000000,move,,643,331
cursor,5e42866ef6ba2b00ec9b1d47,1581418096924000000,move,,811,197
cursor,5e42866ef6ba2b00ec9b1d47,1581418096940000000,move,,878,173
cursor,5e42866ef6ba2b00ec9b1d47,1581418096955000000,move,,942,156
cursor,5e42866ef6ba2b00ec9b1d47,1581418097050000000,move,,1097,164
cursor,5e42866ef6ba2b00ec9b1d47,1581418097081000000,move,,1153,192
cursor,5e42866ef6ba2b00ec9b1d47,1581418097097000000,move,,1209,224
cursor,5e42866ef6ba2b00ec9b1d47,1581418097111000000,move,,1269,263
cursor,5e42866ef6ba2b00ec9b1d47,1581418097111000000,move,,1292,282
cursor,5e42866ef6ba2b00ec9b1d47,1581418097175000000,move,,1386,435
cursor,5e42866ef6ba2b00ec9b1d47,1581418097221000000,move,,1395,588
cursor,5e42866ef6ba2b00ec9b1d47,1581418097236000000,move,,1365,645
cursor,5e42866ef6ba2b00ec9b1d47,1581418097253000000,move,,1340,676
cursor,5e42866ef6ba2b00ec9b1d47,1581418097268000000,move,,1325,696
cursor,5e42866ef6ba2b00ec9b1d47,1581418097315000000,move,,1214,793
cursor,5e42866ef6ba2b00ec9b1d47,1581418097361000000,move,,1098,839
cursor,5e42866ef6ba2b00ec9b1d47,1581418097378000000,move,,1048,841
cursor,5e42866ef6ba2b00ec9b1d47,1581418097393000000,move,,985,833
cursor,5e42866ef6ba2b00ec9b1d47,1581418097409000000,move,,909,810
cursor,5e42866ef6ba2b00ec9b1d47,1581418097486000000,move,,541,594
cursor,5e42866ef6ba2b00ec9b1d47,1581418097518000000,move,,520,566
cursor,5e42866ef6ba2b00ec9b1d47,1581418097533000000,move,,516,552
cursor,5e42866ef6ba2b00ec9b1d47,1581418097549000000,move,,515,538
cursor,5e42866ef6ba2b00ec9b1d47,1581418097566000000,move,,515,531
cursor,5e42866ef6ba2b00ec9b1d47,1581418097611000000,move,,515,486
cursor,5e42866ef6ba2b00ec9b1d47,1581418097658000000,move,,512,474
cursor,5e42866ef6ba2b00ec9b1d47,1581418097799000000,move,,510,470
cursor,5e42866ef6ba2b00ec9b1d47,1581418097831000000,move,,505,462
cursor,5e42866ef6ba2b00ec9b1d47,1581418097846000000,move,,500,449
cursor,5e42866ef6ba2b00ec9b1d47,1581418097861000000,move,,494,428
cursor,5e42866ef6ba2b00ec9b1d47,1581418097877000000,move,,491,417
cursor,5e42866ef6ba2b00ec9b1d47,1581418097956000000,move,,453,343
cursor,5e42866ef6ba2b00ec9b1d47,1581418098081000000,move,,448,340
cursor,5e42866ef6ba2b00ec9b1d47,1581418098144000000,move,,436,329
cursor,5e42866ef6ba2b00ec9b1d47,1581418098158000000,move,,434,327
cursor,5e42866ef6ba2b00ec9b1d47,1581418098174000000,move,,432,325
cursor,5e42866ef6ba2b00ec9b1d47,1581418098174000000,move,,432,324
cursor,5e42866ef6ba2b00ec9b1d47,1581418098222000000,move,,431,321
cursor,5e42866ef6ba2b00ec9b1d47,1581418098284000000,move,,432,312
cursor,5e42866ef6ba2b00ec9b1d47,1581418098284000000,move,,434,311
cursor,5e42866ef6ba2b00ec9b1d47,1581418098331000000,move,,442,305
cursor,5e42866ef6ba2b00ec9b1d47,1581418098393000000,move,,458,299
cursor,5e42866ef6ba2b00ec9b1d47,1581418098424000000,move,,465,298
cursor,5e42866ef6ba2b00ec9b1d47,1581418098440000000,move,,468,298
cursor,5e42866ef6ba2b00ec9b1d47,1581418098440000000,move,,469,298
cursor,5e42866ef6ba2b00ec9b1d47,1581418098533000000,move,,474,302
cursor,5e42866ef6ba2b00ec9b1d47,1581418098549000000,move,,476,305
cursor,5e42866ef6ba2b00ec9b1d47,1581418098565000000,move,,478,306
cursor,5e42866ef6ba2b00ec9b1d47,1581418098580000000,move,,479,306
cursor,5e42866ef6ba2b00ec9b1d47,1581418098611000000,move,,481,306
cursor,5e42866ef6ba2b00ec9b1d47,1581418098644000000,move,,485,306
cursor,5e42866ef6ba2b00ec9b1d47,1581418098674000000,move,,487,306
cursor,5e42866ef6ba2b00ec9b1d47,1581418101487000000,move,,487,307
cursor,5e42866ef6ba2b00ec9b1d47,1581418101487000000,move,,488,308
cursor,5e42866ef6ba2b00ec9b1d47,1581418101502000000,move,,493,311
cursor,5e42866ef6ba2b00ec9b1d47,1581418101518000000,move,,508,322
cursor,5e42866ef6ba2b00ec9b1d47,1581418101534000000,move,,533,336
cursor,5e42866ef6ba2b00ec9b1d47,1581418101612000000,move,,744,393
cursor,5e42866ef6ba2b00ec9b1d47,1581418101659000000,move,,854,398
cursor,5e42866ef6ba2b00ec9b1d47,1581418101675000000,move,,893,405
cursor,5e42866ef6ba2b00ec9b1d47,1581418101691000000,move,,940,412
cursor,5e42866ef6ba2b00ec9b1d47,1581418101706000000,move,,986,422
cursor,5e42866ef6ba2b00ec9b1d47,1581418101752000000,move,,1170,456
cursor,5e42866ef6ba2b00ec9b1d47,1581418101815000000,move,,1257,476
cursor,5e42866ef6ba2b00ec9b1d47,1581418101830000000,move,,1260,477
cursor,5e42866ef6ba2b00ec9b1d47,1581418101955000000,move,,1244,483
cursor,5e42866ef6ba2b00ec9b1d47,1581418101971000000,move,,1225,486
cursor,5e42866ef6ba2b00ec9b1d47,1581418101986000000,move,,1195,492
cursor,5e42866ef6ba2b00ec9b1d47,1581418102002000000,move,,1129,504
cursor,5e42866ef6ba2b00ec9b1d47,1581418102019000000,move,,1087,509
cursor,5e42866ef6ba2b00ec9b1d47,1581418102111000000,move,,801,552
cursor,5e42866ef6ba2b00ec9b1d47,1581418102268000000,move,,800,555
cursor,5e42866ef6ba2b00ec9b1d47,1581418102283000000,move,,799,557
cursor,5e42866ef6ba2b00ec9b1d47,1581418102299000000,move,,798,559
cursor,5e42866ef6ba2b00ec9b1d47,1581418102315000000,move,,797,561
cursor,5e42866ef6ba2b00ec9b1d47,1581418102330000000,move,,796,561
cursor,5e42866ef6ba2b00ec9b1d47,1581418102362000000,move,,795,562
cursor,5e42866ef6ba2b00ec9b1d47,1581418102519000000,down,left,795,562
cursor,5e42866ef6ba2b00ec9b1d47,1581418102972000000,up,left,795,562
cursor,5e42866ef6ba2b00ec9b1d47,1581418103144000000,move,,771,557
cursor,5e42866ef6ba2b00ec9b1d47,1581418103159000000,move,,747,547
cursor,5e42866ef6ba2b00ec9b1d47,1581418103174000000,move,,712,530
cursor,5e42866ef6ba2b00ec9b1d47,1581418103205000000,move,,654,503
cursor,5e42866ef6ba2b00ec9b1d47,1581418103205000000,move,,623,487
cursor,5e42866ef6ba2b00ec9b1d47,1581418103253000000,move,,488,413
cursor,5e42866ef6ba2b00ec9b1d47,1581418103315000000,move,,467,397
cursor,5e42866ef6ba2b00ec9b1d47,1581418103330000000,move,,465,394
cursor,5e42866ef6ba2b00ec9b1d47,1581418103347000000,move,,464,392
cursor,5e42866ef6ba2b00ec9b1d47,1581418103347000000,move,,462,390
cursor,5e42866ef6ba2b00ec9b1d47,1581418103408000000,move,,440,369
cursor,5e42866ef6ba2b00ec9b1d47,1581418103455000000,move,,399,342
cursor,5e42866ef6ba2b00ec9b1d47,1581418103471000000,move,,393,338
cursor,5e42866ef6ba2b00ec9b1d47,1581418103486000000,move,,389,334
cursor,5e42866ef6ba2b00ec9b1d47,1581418103502000000,move,,388,333
cursor,5e42866ef6ba2b00ec9b1d47,1581418103596000000,move,,375,324
cursor,5e42866ef6ba2b00ec9b1d47,1581418103627000000,move,,372,320
cursor,5e42866ef6ba2b00ec9b1d47,1581418103643000000,move,,370,318
cursor,5e42866ef6ba2b00ec9b1d47,1581418103673000000,move,,368,315
cursor,5e42866ef6ba2b00ec9b1d47,1581418103674000000,move,,368,314
cursor,5e42866ef6ba2b00ec9b1d47,1581418103736000000,move,,368,305
cursor,5e42866ef6ba2b00ec9b1d47,1581418103752000000,move,,368,304
cursor,5e42866ef6ba2b00ec9b1d47,1581418103768000000,down,left,368,304
cursor,5e42866ef6ba2b00ec9b1d47,1581418103829000000,up,left,368,304
cursor,5e428677f6ba2b00ec9b1dfc,1581418104110000000,move,,372,320
cursor,5e428677f6ba2b00ec9b1dfc,1581418104128000000,move,,380,336
cursor,5e428677f6ba2b00ec9b1dfc,1581418104143000000,move,,393,351
cursor,5e428677f6ba2b00ec9b1dfc,1581418104158000000,move,,409,365
cursor,5e428677f6ba2b00ec9b1dfc,1581418104174000000,move,,428,381
cursor,5e428677f6ba2b00ec9b1dfc,1581418104236000000,move,,504,459
cursor,5e428677f6ba2b00ec9b1dfc,1581418104298000000,move,,640,563
cursor,5e428677f6ba2b00ec9b1dfc,1581418104315000000,move,,669,581
cursor,5e428677f6ba2b00ec9b1dfc,1581418104331000000,move,,690,593
cursor,5e428677f6ba2b00ec9b1dfc,1581418104329000000,move,,700,597
cursor,5e428677f6ba2b00ec9b1dfc,1581418104393000000,move,,727,607
cursor,5e428677f6ba2b00ec9b1dfc,1581418104596000000,down,left,727,607
cursor,5e428677f6ba2b00ec9b1dfc,1581418104627000000,move,left,728,607
cursor,5e428677f6ba2b00ec9b1dfc,1581418104674000000,move,left,730,607
cursor,5e428677f6ba2b00ec9b1dfc,1581418104689000000,move,left,731,605
cursor,5e428677f6ba2b00ec9b1dfc,1581418104753000000,move,left,748,594
cursor,5e428677f6ba2b00ec9b1dfc,1581418104815000000,move,left,776,581
cursor,5e428677f6ba2b00ec9b1dfc,1581418104830000000,move,left,791,576
cursor,5e428677f6ba2b00ec9b1dfc,1581418104846000000,move,left,811,571
cursor,5e428677f6ba2b00ec9b1dfc,1581418104861000000,move,left,837,564
cursor,5e428677f6ba2b00ec9b1dfc,1581418104924000000,move,left,947,538
cursor,5e428677f6ba2b00ec9b1dfc,1581418104986000000,move,left,1054,518
cursor,5e428677f6ba2b00ec9b1dfc,1581418105001000000,move,left,1083,512
cursor,5e428677f6ba2b00ec9b1dfc,1581418105019000000,move,left,1113,506
cursor,5e428677f6ba2b00ec9b1dfc,1581418105033000000,move,left,1150,499
cursor,5e428677f6ba2b00ec9b1dfc,1581418105143000000,move,left,1520,455
cursor,5e428677f6ba2b00ec9b1dfc,1581418105158000000,move,left,1544,455
cursor,5e428677f6ba2b00ec9b1dfc,1581418105174000000,move,left,1564,455
cursor,5e428677f6ba2b00ec9b1dfc,1581418105190000000,move,left,1583,459
cursor,5e428677f6ba2b00ec9b1dfc,1581418105204000000,move,left,1592,461
cursor,5e428677f6ba2b00ec9b1dfc,1581418105268000000,move,left,1699,482
cursor,5e428677f6ba2b00ec9b1dfc,1581418105331000000,move,left,1795,500
cursor,5e428677f6ba2b00ec9b1dfc,1581418105346000000,move,left,1819,506
cursor,5e428677f6ba2b00ec9b1dfc,1581418105377000000,move,left,1842,515
cursor,5e428677f6ba2b00ec9b1dfc,1581418105377000000,move,left,1852,518
cursor,5e428677f6ba2b00ec9b1dfc,1581418105440000000,move,left,1927,554
cursor,5e428677f6ba2b00ec9b1dfc,1581418105502000000,move,left,1965,581
cursor,5e428677f6ba2b00ec9b1dfc,1581418105502000000,move,left,1969,583
cursor,5e428677f6ba2b00ec9b1dfc,1581418105518000000,move,left,1969,584
cursor,5e428677f6ba2b00ec9b1dfc,1581418105533000000,move,left,1970,584
cursor,5e428677f6ba2b00ec9b1dfc,1581418105800000000,up,left,1970,584
cursor,5e428677f6ba2b00ec9b1dfc,1581418106143000000,move,,1969,585
cursor,5e428677f6ba2b00ec9b1dfc,1581418106143000000,move,,1959,589
cursor,5e428677f6ba2b00ec9b1dfc,1581418106157000000,move,,1933,595
cursor,5e428677f6ba2b00ec9b1dfc,1581418106174000000,move,,1883,604
cursor,5e428677f6ba2b00ec9b1dfc,1581418106190000000,move,,1846,609
cursor,5e428677f6ba2b00ec9b1dfc,1581418106252000000,move,,1329,647
cursor,5e428677f6ba2b00ec9b1dfc,1581418106315000000,move,,898,654
cursor,5e428677f6ba2b00ec9b1dfc,1581418106330000000,move,,875,651
cursor,5e428677f6ba2b00ec9b1dfc,1581418106346000000,move,,869,651
cursor,5e428677f6ba2b00ec9b1dfc,1581418106346000000,move,,868,650
cursor,5e428677f6ba2b00ec9b1dfc,1581418106610000000,move,,864,650
cursor,5e428677f6ba2b00ec9b1dfc,1581418106674000000,move,,849,655
cursor,5e428677f6ba2b00ec9b1dfc,1581418106674000000,move,,848,655
cursor,5e428677f6ba2b00ec9b1dfc,1581418106689000000,move,,847,655
cursor,5e428677f6ba2b00ec9b1dfc,1581418106799000000,down,left,847,655
cursor,5e428677f6ba2b00ec9b1dfc,1581418106846000000,move,left,848,655
cursor,5e428677f6ba2b00ec9b1dfc,1581418106861000000,move,left,850,655
cursor,5e428677f6ba2b00ec9b1dfc,1581418106876000000,move,left,860,654
cursor,5e428677f6ba2b00ec9b1dfc,1581418106955000000,move,left,995,619
cursor,5e428677f6ba2b00ec9b1dfc,1581418107018000000,move,left,1251,531
cursor,5e428677f6ba2b00ec9b1dfc,1581418107033000000,move,left,1291,515
cursor,5e428677f6ba2b00ec9b1dfc,1581418107065000000,move,left,1339,497
cursor,5e428677f6ba2b00ec9b1dfc,1581418107065000000,move,left,1356,492
cursor,5e428677f6ba2b00ec9b1dfc,1581418107173000000,move,left,1607,472
cursor,5e428677f6ba2b00ec9b1dfc,1581418107190000000,move,left,1633,472
cursor,5e428677f6ba2b00ec9b1dfc,1581418107205000000,move,left,1657,472
cursor,5e428677f6ba2b00ec9b1dfc,1581418107221000000,move,left,1680,472
cursor,5e428677f6ba2b00ec9b1dfc,1581418107236000000,move,left,1700,472
cursor,5e428677f6ba2b00ec9b1dfc,1581418107299000000,move,left,1761,481
cursor,5e428677f6ba2b00ec9b1dfc,1581418107361000000,move,left,1790,484
cursor,5e428677f6ba2b00ec9b1dfc,1581418107378000000,move,left,1792,485
cursor,5e428677f6ba2b00ec9b1dfc,1581418107392000000,up,left,1792,485
cursor,5e428677f6ba2b00ec9b1dfc,1581418107471000000,move,,1792,486
cursor,5e428677f6ba2b00ec9b1dfc,1581418107533000000,move,,1662,516
cursor,5e428677f6ba2b00ec9b1dfc,1581418107549000000,move,,1576,527
cursor,5e428677f6ba2b00ec9b1dfc,1581418107565000000,move,,1484,536
cursor,5e428677f6ba2b00ec9b1dfc,1581418107565000000,move,,1435,540
cursor,5e428677f6ba2b00ec9b1dfc,1581418107674000000,move,,1016,606
cursor,5e428677f6ba2b00ec9b1dfc,1581418107691000000,move,,977,612
cursor,5e428677f6ba2b00ec9b1dfc,1581418107705000000,move,,953,613
cursor,5e428677f6ba2b00ec9b1dfc,1581418107720000000,move,,937,613
cursor,5e428677f6ba2b00ec9b1dfc,1581418107751000000,move,,926,613
cursor,5e428677f6ba2b00ec9b1dfc,1581418107799000000,move,,898,587
cursor,5e428677f6ba2b00ec9b1dfc,1581418107877000000,move,,820,551
cursor,5e428677f6ba2b00ec9b1dfc,1581418107893000000,move,,804,544
cursor,5e428677f6ba2b00ec9b1dfc,1581418107909000000,move,,794,537
cursor,5e428677f6ba2b00ec9b1dfc,1581418107907000000,move,,790,533
cursor,5e428677f6ba2b00ec9b1dfc,1581418107955000000,move,,782,521
cursor,5e428677f6ba2b00ec9b1dfc,1581418107986000000,move,,782,519
cursor,5e428677f6ba2b00ec9b1dfc,1581418108049000000,down,left,782,519
cursor,5e428677f6ba2b00ec9b1dfc,1581418108205000000,move,left,1012,637
cursor,5e428677f6ba2b00ec9b1dfc,1581418108221000000,move,left,1086,662
cursor,5e428677f6ba2b00ec9b1dfc,1581418108236000000,move,left,1182,684
cursor,5e428677f6ba2b00ec9b1dfc,1581418108252000000,move,left,1245,693
cursor,5e428677f6ba2b00ec9b1dfc,1581418108268000000,move,left,1272,694
cursor,5e428677f6ba2b00ec9b1dfc,1581418108315000000,move,left,1404,700
cursor,5e428677f6ba2b00ec9b1dfc,1581418108393000000,move,left,1591,663
cursor,5e428677f6ba2b00ec9b1dfc,1581418108408000000,move,left,1657,643
cursor,5e428677f6ba2b00ec9b1dfc,1581418108425000000,move,left,1732,609
cursor,5e428677f6ba2b00ec9b1dfc,1581418108485000000,move,left,1806,557
cursor,5e428677f6ba2b00ec9b1dfc,1581418108518000000,up,left,1806,557
cursor,5e428677f6ba2b00ec9b1dfc,1581418108596000000,move,,1802,556
cursor,5e428677f6ba2b00ec9b1dfc,1581418108736000000,move,,1265,403
cursor,5e428677f6ba2b00ec9b1dfc,1581418108752000000,move,,1205,387
cursor,5e428677f6ba2b00ec9b1dfc,1581418108767000000,move,,1146,374
cursor,5e428677f6ba2b00ec9b1dfc,1581418108783000000,move,,1094,366
cursor,5e428677f6ba2b00ec9b1dfc,1581418108783000000,move,,1074,363
cursor,5e428677f6ba2b00ec9b1dfc,1581418108846000000,move,,963,352
cursor,5e428677f6ba2b00ec9b1dfc,1581418108892000000,move,,933,338
cursor,5e428677f6ba2b00ec9b1dfc,1581418108908000000,move,,929,334
cursor,5e428677f6ba2b00ec9b1dfc,1581418108924000000,move,,926,331
cursor,5e428677f6ba2b00ec9b1dfc,1581418108940000000,move,,925,329
cursor,5e428677f6ba2b00ec9b1dfc,1581418109001000000,move,,924,329
cursor,5e428677f6ba2b00ec9b1dfc,1581418109018000000,down,left,924,329
cursor,5e428677f6ba2b00ec9b1dfc,1581418109080000000,move,left,906,371
cursor,5e428677f6ba2b00ec9b1dfc,1581418109096000000,move,left,896,404
cursor,5e428677f6ba2b00ec9b1dfc,1581418109111000000,move,left,884,455
cursor,5e428677f6ba2b00ec9b1dfc,1581418109142000000,move,left,871,511
cursor,5e428677f6ba2b00ec9b1dfc,1581418109142000000,move,left,865,538
cursor,5e428677f6ba2b00ec9b1dfc,1581418109221000000,move,left,816,747
cursor,5e428677f6ba2b00ec9b1dfc,1581418109283000000,move,left,801,826
cursor,5e428677f6ba2b00ec9b1dfc,1581418109299000000,move,left,799,830
cursor,5e428677f6ba2b00ec9b1dfc,1581418109315000000,move,left,797,831
cursor,5e428677f6ba2b00ec9b1dfc,1581418109314000000,up,left,797,831
cursor,5e428677f6ba2b00ec9b1dfc,1581418109314000000,move,,796,832
cursor,5e428677f6ba2b00ec9b1dfc,1581418109425000000,move,,828,800
cursor,5e428677f6ba2b00ec9b1dfc,1581418109472000000,move,,922,640
cursor,5e428677f6ba2b00ec9b1dfc,1581418109486000000,move,,945,584
cursor,5e428677f6ba2b00ec9b1dfc,1581418109502000000,move,,964,534
cursor,5e428677f6ba2b00ec9b1dfc,1581418109518000000,move,,979,496
cursor,5e428677f6ba2b00ec9b1dfc,1581418109533000000,move,,984,482
cursor,5e428677f6ba2b00ec9b1dfc,1581418109643000000,move,,993,400
cursor,5e428677f6ba2b00ec9b1dfc,1581418109846000000,move,,972,393
cursor,5e428677f6ba2b00ec9b1dfc,1581418109846000000,move,,966,389
cursor,5e428677f6ba2b00ec9b1dfc,1581418109860000000,move,,960,385
cursor,5e428677f6ba2b00ec9b1dfc,1581418109876000000,move,,957,382
cursor,5e428677f6ba2b00ec9b1dfc,1581418109876000000,move,,957,381
cursor,5e428677f6ba2b00ec9b1dfc,1581418109893000000,move,,957,380
cursor,5e428677f6ba2b00ec9b1dfc,1581418110018000000,move,,957,382
cursor,5e428677f6ba2b00ec9b1dfc,1581418110033000000,move,,965,390
cursor,5e428677f6ba2b00ec9b1dfc,1581418110050000000,move,,977,402
cursor,5e428677f6ba2b00ec9b1dfc,1581418110050000000,move,,984,408
cursor,5e428677f6ba2b00ec9b1dfc,1581418110174000000,move,,1052,524
cursor,5e428677f6ba2b00ec9b1dfc,1581418110206000000,move,,1062,549
cursor,5e428677f6ba2b00ec9b1dfc,1581418110221000000,move,,1065,559
cursor,5e428677f6ba2b00ec9b1dfc,1581418110235000000,move,,1066,564
cursor,5e428677f6ba2b00ec9b1dfc,1581418110235000000,move,,1066,565
cursor,5e428677f6ba2b00ec9b1dfc,1581418110253000000,move,,1066,567
cursor,5e428677f6ba2b00ec9b1dfc,1581418110408000000,move,,1066,568
cursor,5e428677f6ba2b00ec9b1dfc,1581418110485000000,move,,1070,578
cursor,5e428677f6ba2b00ec9b1dfc,1581418110596000000,move,,1071,581
cursor,5e428677f6ba2b00ec9b1dfc,1581418110752000000,move,,1079,637
cursor,5e428677f6ba2b00ec9b1dfc,1581418110768000000,move,,1079,640
cursor,5e428677f6ba2b00ec9b1dfc,1581418111282000000,move,,1071,626
cursor,5e428677f6ba2b00ec9b1dfc,1581418111299000000,move,,1067,618
cursor,5e428677f6ba2b00ec9b1dfc,1581418111314000000,move,,1063,609
cursor,5e428677f6ba2b00ec9b1dfc,1581418111330000000,move,,1057,600
cursor,5e428677f6ba2b00ec9b1dfc,1581418111331000000,move,,1053,594
cursor,5e428677f6ba2b00ec9b1dfc,1581418111408000000,move,,1023,536
cursor,5e428677f6ba2b00ec9b1dfc,1581418111455000000,move,,1000,476
cursor,5e428677f6ba2b00ec9b1dfc,1581418111518000000,move,,984,434
cursor,5e428677f6ba2b00ec9b1dfc,1581418111580000000,move,,983,418
cursor,5e428677f6ba2b00ec9b1dfc,1581418111596000000,move,,983,417
cursor,5e428677f6ba2b00ec9b1dfc,1581418111830000000,move,,986,435
cursor,5e428677f6ba2b00ec9b1dfc,1581418111893000000,move,,990,454
cursor,5e428677f6ba2b00ec9b1dfc,1581418111924000000,move,,991,457
cursor,5e428677f6ba2b00ec9b1dfc,1581418111940000000,move,,992,460
cursor,5e428677f6ba2b00ec9b1dfc,1581418111955000000,move,,992,465
cursor,5e428677f6ba2b00ec9b1dfc,1581418112018000000,move,,995,482
cursor,5e428677f6ba2b00ec9b1dfc,1581418112080000000,move,,996,495
cursor,5e428677f6ba2b00ec9b1dfc,1581418112111000000,move,,996,500
cursor,5e428677f6ba2b00ec9b1dfc,1581418112127000000,move,,996,504
cursor,5e428677f6ba2b00ec9b1dfc,1581418112127000000,move,,996,508
cursor,5e428677f6ba2b00ec9b1dfc,1581418112268000000,move,,994,534
cursor,5e428677f6ba2b00ec9b1dfc,1581418112283000000,move,,992,537
cursor,5e428677f6ba2b00ec9b1dfc,1581418112299000000,move,,987,544
cursor,5e428677f6ba2b00ec9b1dfc,1581418112316000000,move,,978,553
cursor,5e428677f6ba2b00ec9b1dfc,1581418112329000000,move,,962,563
cursor,5e428677f6ba2b00ec9b1dfc,1581418112329000000,move,,952,569
cursor,5e428677f6ba2b00ec9b1dfc,1581418112408000000,move,,813,603
cursor,5e428677f6ba2b00ec9b1dfc,1581418112472000000,move,,814,612
cursor,5e428677f6ba2b00ec9b1dfc,1581418112643000000,move,,814,613
cursor,5e428677f6ba2b00ec9b1dfc,1581418112674000000,move,,812,613
cursor,5e428677f6ba2b00ec9b1dfc,1581418112691000000,move,,808,614
cursor,5e428677f6ba2b00ec9b1dfc,1581418112705000000,move,,797,621
cursor,5e428677f6ba2b00ec9b1dfc,1581418112704000000,move,,792,632
cursor,5e428677f6ba2b00ec9b1dfc,1581418112783000000,move,,775,662
cursor,5e428677f6ba2b00ec9b1dfc,1581418112861000000,move,,782,659
cursor,5e428677f6ba2b00ec9b1dfc,1581418112877000000,move,,786,657
cursor,5e428677f6ba2b00ec9b1dfc,1581418112893000000,move,,790,656
cursor,5e428677f6ba2b00ec9b1dfc,1581418112893000000,move,,792,656
cursor,5e428677f6ba2b00ec9b1dfc,1581418112940000000,move,,809,656
cursor,5e428677f6ba2b00ec9b1dfc,1581418112940000000,down,left,809,656
cursor,5e428677f6ba2b00ec9b1dfc,1581418112971000000,move,left,833,656
cursor,5e428677f6ba2b00ec9b1dfc,1581418113034000000,move,left,996,637
cursor,5e428677f6ba2b00ec9b1dfc,1581418113096000000,move,left,1142,611
cursor,5e428677f6ba2b00ec9b1dfc,1581418113158000000,move,left,1218,602
cursor,5e428677f6ba2b00ec9b1dfc,1581418113174000000,move,left,1239,598
cursor,5e428677f6ba2b00ec9b1dfc,1581418113190000000,move,left,1262,596
cursor,5e428677f6ba2b00ec9b1dfc,1581418113190000000,move,left,1274,595
cursor,5e428677f6ba2b00ec9b1dfc,1581418113283000000,move,left,1455,573
cursor,5e428677f6ba2b00ec9b1dfc,1581418113315000000,move,left,1489,568
cursor,5e428677f6ba2b00ec9b1dfc,1581418113315000000,up,left,1489,568
cursor,5e428677f6ba2b00ec9b1dfc,1581418113346000000,move,,1508,564
cursor,5e428677f6ba2b00ec9b1dfc,1581418113361000000,move,,1514,563
cursor,5e428677f6ba2b00ec9b1dfc,1581418113393000000,move,,1518,562
cursor,5e428677f6ba2b00ec9b1dfc,1581418113471000000,down,left,1518,562
cursor,5e428677f6ba2b00ec9b1dfc,1581418113502000000,move,left,1512,562
cursor,5e428677f6ba2b00ec9b1dfc,1581418113564000000,move,left,1251,528
cursor,5e428677f6ba2b00ec9b1dfc,1581418113580000000,move,left,1166,514
cursor,5e428677f6ba2b00ec9b1dfc,1581418113611000000,move,left,1081,499
cursor,5e428677f6ba2b00ec9b1dfc,1581418113611000000,move,left,1044,492
cursor,5e428677f6ba2b00ec9b1dfc,1581418113751000000,move,left,836,450
cursor,5e428677f6ba2b00ec9b1dfc,1581418113751000000,up,left,836,450
cursor,5e428677f6ba2b00ec9b1dfc,1581418113768000000,move,,813,440
cursor,5e428677f6ba2b00ec9b1dfc,1581418113783000000,move,,800,432
cursor,5e428677f6ba2b00ec9b1dfc,1581418113798000000,move,,786,424
cursor,5e428677f6ba2b00ec9b1dfc,1581418113814000000,move,,778,419
cursor,5e428677f6ba2b00ec9b1dfc,1581418113877000000,move,,717,379
cursor,5e428677f6ba2b00ec9b1dfc,1581418113955000000,move,,673,360
cursor,5e428677f6ba2b00ec9b1dfc,1581418113972000000,move,,661,356
cursor,5e428677f6ba2b00ec9b1dfc,1581418113987000000,move,,647,351
cursor,5e428677f6ba2b00ec9b1dfc,1581418114001000000,move,,633,346
cursor,5e428677f6ba2b00ec9b1dfc,1581418114065000000,move,,566,328
cursor,5e428677f6ba2b00ec9b1dfc,1581418114143000000,move,,502,314
cursor,5e428677f6ba2b00ec9b1dfc,1581418114158000000,move,,499,314
cursor,5e428677f6ba2b00ec9b1dfc,1581418114158000000,move,,498,314
cursor,5e428677f6ba2b00ec9b1dfc,1581418114377000000,move,,482,313
cursor,5e428677f6ba2b00ec9b1dfc,1581418114643000000,down,left,482,313
cursor,5e428677f6ba2b00ec9b1dfc,1581418114751000000,up,left,482,313
cursor,5e428677f6ba2b00ec9b1dfc,1581418119736000000,move,,425,301
cursor,5e428677f6ba2b00ec9b1dfc,1581418119753000000,move,,431,301
cursor,5e428677f6ba2b00ec9b1dfc,1581418119767000000,move,,438,301
cursor,5e428677f6ba2b00ec9b1dfc,1581418119782000000,move,,447,301
cursor,5e428677f6ba2b00ec9b1dfc,1581418119800000000,move,,457,301
cursor,5e428677f6ba2b00ec9b1dfc,1581418119940000000,move,,509,301
cursor,5e428677f6ba2b00ec9b1dfc,1581418120002000000,move,,524,303
cursor,5e428677f6ba2b00ec9b1dfc,1581418120001000000,move,,525,304
cursor,5e428677f6ba2b00ec9b1dfc,1581418120018000000,move,,527,304
cursor,5e428677f6ba2b00ec9b1dfc,1581418120079000000,down,left,527,304
cursor,5e428677f6ba2b00ec9b1dfc,1581418120174000000,up,left,527,304
cursor,5e428677f6ba2b00ec9b1dfc,1581418120205000000,move,,527,305
cursor,5e428677f6ba2b00ec9b1dfc,1581418120236000000,move,,526,306
cursor,5e428677f6ba2b00ec9b1dfc,1581418120252000000,move,,525,306
cursor,5e428677f6ba2b00ec9b1dfc,1581418120408000000,move,,476,310
cursor,5e428677f6ba2b00ec9b1dfc,1581418120532000000,down,left,476,310
cursor,5e428677f6ba2b00ec9b1dfc,1581418120611000000,up,left,476,310
